transcript.txt

# End time: 16:43:30 on Nov 12,2022, Elapsed time: 0:02:11
# Errors: 0, Warnings: 1
vsim -gui work1.tb_bcd_add_sub
# vsim -gui work1.tb_bcd_add_sub 
# Start time: 16:43:55 on Nov 12,2022
# Loading work1.tb_bcd_add_sub
# Loading work1.bcd_add_sub
# Loading work1.comp9ckt
# Loading work1.mux2_1
# Loading work1.bcd_adder
# Loading work1.fulladdr
add wave -position insertpoint sim:/tb_bcd_add_sub/*
run -all
#                    0 A=0000, B=0000 , Mode=0, sum_dif=0000, carr_borr=0
#                   10 A=0000, B=0000 , Mode=1, sum_dif=0000, carr_borr=1
#                   20 A=0000, B=0001 , Mode=0, sum_dif=0001, carr_borr=0
#                   30 A=0000, B=0001 , Mode=1, sum_dif=1001, carr_borr=0
#                   40 A=0000, B=0010 , Mode=0, sum_dif=0010, carr_borr=0
#                   50 A=0000, B=0010 , Mode=1, sum_dif=1000, carr_borr=0
#                   60 A=0000, B=0011 , Mode=0, sum_dif=0011, carr_borr=0
#                   70 A=0000, B=0011 , Mode=1, sum_dif=0111, carr_borr=0
#                   80 A=0000, B=0100 , Mode=0, sum_dif=0100, carr_borr=0
#                   90 A=0000, B=0100 , Mode=1, sum_dif=0000, carr_borr=1
#                  100 A=0000, B=0101 , Mode=0, sum_dif=0101, carr_borr=0
#                  110 A=0000, B=0101 , Mode=1, sum_dif=0101, carr_borr=0
#                  120 A=0000, B=0110 , Mode=0, sum_dif=0110, carr_borr=0
#                  130 A=0000, B=0110 , Mode=1, sum_dif=0100, carr_borr=0
#                  140 A=0000, B=0111 , Mode=0, sum_dif=0111, carr_borr=0
#                  150 A=0000, B=0111 , Mode=1, sum_dif=0011, carr_borr=0
#                  160 A=0000, B=1000 , Mode=0, sum_dif=1000, carr_borr=0
#                  170 A=0000, B=1000 , Mode=1, sum_dif=0010, carr_borr=0
#                  180 A=0000, B=1001 , Mode=0, sum_dif=1001, carr_borr=0
#                  190 A=0000, B=1001 , Mode=1, sum_dif=0001, carr_borr=0
#                  200 A=0001, B=0000 , Mode=0, sum_dif=0001, carr_borr=0
#                  210 A=0001, B=0000 , Mode=1, sum_dif=0001, carr_borr=1
#                  220 A=0001, B=0001 , Mode=0, sum_dif=0010, carr_borr=0
#                  230 A=0001, B=0001 , Mode=1, sum_dif=0000, carr_borr=1
#                  240 A=0001, B=0010 , Mode=0, sum_dif=0011, carr_borr=0
#                  250 A=0001, B=0010 , Mode=1, sum_dif=1001, carr_borr=0
#                  260 A=0001, B=0011 , Mode=0, sum_dif=0100, carr_borr=0
#                  270 A=0001, B=0011 , Mode=1, sum_dif=1000, carr_borr=0
#                  280 A=0001, B=0100 , Mode=0, sum_dif=0101, carr_borr=0
#                  290 A=0001, B=0100 , Mode=1, sum_dif=0001, carr_borr=1
#                  300 A=0001, B=0101 , Mode=0, sum_dif=0110, carr_borr=0
#                  310 A=0001, B=0101 , Mode=1, sum_dif=0110, carr_borr=0
#                  320 A=0001, B=0110 , Mode=0, sum_dif=0111, carr_borr=0
#                  330 A=0001, B=0110 , Mode=1, sum_dif=0101, carr_borr=0
#                  340 A=0001, B=0111 , Mode=0, sum_dif=1000, carr_borr=0
#                  350 A=0001, B=0111 , Mode=1, sum_dif=0100, carr_borr=0
#                  360 A=0001, B=1000 , Mode=0, sum_dif=1001, carr_borr=0
#                  370 A=0001, B=1000 , Mode=1, sum_dif=0011, carr_borr=0
#                  380 A=0001, B=1001 , Mode=0, sum_dif=0000, carr_borr=1
#                  390 A=0001, B=1001 , Mode=1, sum_dif=0010, carr_borr=0
#                  400 A=0010, B=0000 , Mode=0, sum_dif=0010, carr_borr=0
#                  410 A=0010, B=0000 , Mode=1, sum_dif=0010, carr_borr=1
#                  420 A=0010, B=0001 , Mode=0, sum_dif=0011, carr_borr=0
#                  430 A=0010, B=0001 , Mode=1, sum_dif=0001, carr_borr=1
#                  440 A=0010, B=0010 , Mode=0, sum_dif=0100, carr_borr=0
#                  450 A=0010, B=0010 , Mode=1, sum_dif=0000, carr_borr=1
#                  460 A=0010, B=0011 , Mode=0, sum_dif=0101, carr_borr=0
#                  470 A=0010, B=0011 , Mode=1, sum_dif=1001, carr_borr=0
#                  480 A=0010, B=0100 , Mode=0, sum_dif=0110, carr_borr=0
#                  490 A=0010, B=0100 , Mode=1, sum_dif=0010, carr_borr=1
#                  500 A=0010, B=0101 , Mode=0, sum_dif=0111, carr_borr=0
#                  510 A=0010, B=0101 , Mode=1, sum_dif=0111, carr_borr=0
#                  520 A=0010, B=0110 , Mode=0, sum_dif=1000, carr_borr=0
#                  530 A=0010, B=0110 , Mode=1, sum_dif=0110, carr_borr=0
#                  540 A=0010, B=0111 , Mode=0, sum_dif=1001, carr_borr=0
#                  550 A=0010, B=0111 , Mode=1, sum_dif=0101, carr_borr=0
#                  560 A=0010, B=1000 , Mode=0, sum_dif=0000, carr_borr=1
#                  570 A=0010, B=1000 , Mode=1, sum_dif=0100, carr_borr=0
#                  580 A=0010, B=1001 , Mode=0, sum_dif=0001, carr_borr=1
#                  590 A=0010, B=1001 , Mode=1, sum_dif=0011, carr_borr=0
#                  600 A=0011, B=0000 , Mode=0, sum_dif=0011, carr_borr=0
#                  610 A=0011, B=0000 , Mode=1, sum_dif=0011, carr_borr=1
#                  620 A=0011, B=0001 , Mode=0, sum_dif=0100, carr_borr=0
#                  630 A=0011, B=0001 , Mode=1, sum_dif=0010, carr_borr=1
#                  640 A=0011, B=0010 , Mode=0, sum_dif=0101, carr_borr=0
#                  650 A=0011, B=0010 , Mode=1, sum_dif=0001, carr_borr=1
#                  660 A=0011, B=0011 , Mode=0, sum_dif=0110, carr_borr=0
#                  670 A=0011, B=0011 , Mode=1, sum_dif=0000, carr_borr=1
#                  680 A=0011, B=0100 , Mode=0, sum_dif=0111, carr_borr=0
#                  690 A=0011, B=0100 , Mode=1, sum_dif=0011, carr_borr=1
#                  700 A=0011, B=0101 , Mode=0, sum_dif=1000, carr_borr=0
#                  710 A=0011, B=0101 , Mode=1, sum_dif=1000, carr_borr=0
#                  720 A=0011, B=0110 , Mode=0, sum_dif=1001, carr_borr=0
#                  730 A=0011, B=0110 , Mode=1, sum_dif=0111, carr_borr=0
#                  740 A=0011, B=0111 , Mode=0, sum_dif=0000, carr_borr=1
#                  750 A=0011, B=0111 , Mode=1, sum_dif=0110, carr_borr=0
#                  760 A=0011, B=1000 , Mode=0, sum_dif=0001, carr_borr=1
#                  770 A=0011, B=1000 , Mode=1, sum_dif=0101, carr_borr=0
#                  780 A=0011, B=1001 , Mode=0, sum_dif=0010, carr_borr=1
#                  790 A=0011, B=1001 , Mode=1, sum_dif=0100, carr_borr=0
#                  800 A=0100, B=0000 , Mode=0, sum_dif=0100, carr_borr=0
#                  810 A=0100, B=0000 , Mode=1, sum_dif=0100, carr_borr=1
#                  820 A=0100, B=0001 , Mode=0, sum_dif=0101, carr_borr=0
#                  830 A=0100, B=0001 , Mode=1, sum_dif=0011, carr_borr=1
#                  840 A=0100, B=0010 , Mode=0, sum_dif=0110, carr_borr=0
#                  850 A=0100, B=0010 , Mode=1, sum_dif=0010, carr_borr=1
#                  860 A=0100, B=0011 , Mode=0, sum_dif=0111, carr_borr=0
#                  870 A=0100, B=0011 , Mode=1, sum_dif=0001, carr_borr=1
#                  880 A=0100, B=0100 , Mode=0, sum_dif=1000, carr_borr=0
#                  890 A=0100, B=0100 , Mode=1, sum_dif=0100, carr_borr=1
#                  900 A=0100, B=0101 , Mode=0, sum_dif=1001, carr_borr=0
#                  910 A=0100, B=0101 , Mode=1, sum_dif=1001, carr_borr=0
#                  920 A=0100, B=0110 , Mode=0, sum_dif=0000, carr_borr=1
#                  930 A=0100, B=0110 , Mode=1, sum_dif=1000, carr_borr=0
#                  940 A=0100, B=0111 , Mode=0, sum_dif=0001, carr_borr=1
#                  950 A=0100, B=0111 , Mode=1, sum_dif=0111, carr_borr=0
#                  960 A=0100, B=1000 , Mode=0, sum_dif=0010, carr_borr=1
#                  970 A=0100, B=1000 , Mode=1, sum_dif=0110, carr_borr=0
#                  980 A=0100, B=1001 , Mode=0, sum_dif=0011, carr_borr=1
#                  990 A=0100, B=1001 , Mode=1, sum_dif=0101, carr_borr=0
#                 1000 A=0101, B=0000 , Mode=0, sum_dif=0101, carr_borr=0
#                 1010 A=0101, B=0000 , Mode=1, sum_dif=0101, carr_borr=1
#                 1020 A=0101, B=0001 , Mode=0, sum_dif=0110, carr_borr=0
#                 1030 A=0101, B=0001 , Mode=1, sum_dif=0100, carr_borr=1
#                 1040 A=0101, B=0010 , Mode=0, sum_dif=0111, carr_borr=0
#                 1050 A=0101, B=0010 , Mode=1, sum_dif=0011, carr_borr=1
#                 1060 A=0101, B=0011 , Mode=0, sum_dif=1000, carr_borr=0
#                 1070 A=0101, B=0011 , Mode=1, sum_dif=0010, carr_borr=1
#                 1080 A=0101, B=0100 , Mode=0, sum_dif=1001, carr_borr=0
#                 1090 A=0101, B=0100 , Mode=1, sum_dif=0101, carr_borr=1
#                 1100 A=0101, B=0101 , Mode=0, sum_dif=0000, carr_borr=1
#                 1110 A=0101, B=0101 , Mode=1, sum_dif=0000, carr_borr=1
#                 1120 A=0101, B=0110 , Mode=0, sum_dif=0001, carr_borr=1
#                 1130 A=0101, B=0110 , Mode=1, sum_dif=1001, carr_borr=0
#                 1140 A=0101, B=0111 , Mode=0, sum_dif=0010, carr_borr=1
#                 1150 A=0101, B=0111 , Mode=1, sum_dif=1000, carr_borr=0
#                 1160 A=0101, B=1000 , Mode=0, sum_dif=0011, carr_borr=1
#                 1170 A=0101, B=1000 , Mode=1, sum_dif=0111, carr_borr=0
#                 1180 A=0101, B=1001 , Mode=0, sum_dif=0100, carr_borr=1
#                 1190 A=0101, B=1001 , Mode=1, sum_dif=0110, carr_borr=0
#                 1200 A=0110, B=0000 , Mode=0, sum_dif=0110, carr_borr=0
#                 1210 A=0110, B=0000 , Mode=1, sum_dif=0110, carr_borr=0
#                 1220 A=0110, B=0001 , Mode=0, sum_dif=0111, carr_borr=0
#                 1230 A=0110, B=0001 , Mode=1, sum_dif=0101, carr_borr=1
#                 1240 A=0110, B=0010 , Mode=0, sum_dif=1000, carr_borr=0
#                 1250 A=0110, B=0010 , Mode=1, sum_dif=0100, carr_borr=1
#                 1260 A=0110, B=0011 , Mode=0, sum_dif=1001, carr_borr=0
#                 1270 A=0110, B=0011 , Mode=1, sum_dif=0011, carr_borr=1
#                 1280 A=0110, B=0100 , Mode=0, sum_dif=0000, carr_borr=1
#                 1290 A=0110, B=0100 , Mode=1, sum_dif=0110, carr_borr=0
#                 1300 A=0110, B=0101 , Mode=0, sum_dif=0001, carr_borr=1
#                 1310 A=0110, B=0101 , Mode=1, sum_dif=0001, carr_borr=1
#                 1320 A=0110, B=0110 , Mode=0, sum_dif=0010, carr_borr=1
#                 1330 A=0110, B=0110 , Mode=1, sum_dif=0000, carr_borr=1
#                 1340 A=0110, B=0111 , Mode=0, sum_dif=0011, carr_borr=1
#                 1350 A=0110, B=0111 , Mode=1, sum_dif=1001, carr_borr=0
#                 1360 A=0110, B=1000 , Mode=0, sum_dif=0100, carr_borr=1
#                 1370 A=0110, B=1000 , Mode=1, sum_dif=1000, carr_borr=0
#                 1380 A=0110, B=1001 , Mode=0, sum_dif=0101, carr_borr=1
#                 1390 A=0110, B=1001 , Mode=1, sum_dif=0111, carr_borr=0
#                 1400 A=0111, B=0000 , Mode=0, sum_dif=0111, carr_borr=0
#                 1410 A=0111, B=0000 , Mode=1, sum_dif=0111, carr_borr=0
#                 1420 A=0111, B=0001 , Mode=0, sum_dif=1000, carr_borr=0
#                 1430 A=0111, B=0001 , Mode=1, sum_dif=0110, carr_borr=0
#                 1440 A=0111, B=0010 , Mode=0, sum_dif=1001, carr_borr=0
#                 1450 A=0111, B=0010 , Mode=1, sum_dif=0101, carr_borr=1
#                 1460 A=0111, B=0011 , Mode=0, sum_dif=0000, carr_borr=1
#                 1470 A=0111, B=0011 , Mode=1, sum_dif=0100, carr_borr=1
#                 1480 A=0111, B=0100 , Mode=0, sum_dif=0001, carr_borr=1
#                 1490 A=0111, B=0100 , Mode=1, sum_dif=0111, carr_borr=0
#                 1500 A=0111, B=0101 , Mode=0, sum_dif=0010, carr_borr=1
#                 1510 A=0111, B=0101 , Mode=1, sum_dif=0010, carr_borr=1
#                 1520 A=0111, B=0110 , Mode=0, sum_dif=0011, carr_borr=1
#                 1530 A=0111, B=0110 , Mode=1, sum_dif=0001, carr_borr=1
#                 1540 A=0111, B=0111 , Mode=0, sum_dif=0100, carr_borr=1
#                 1550 A=0111, B=0111 , Mode=1, sum_dif=0000, carr_borr=1
#                 1560 A=0111, B=1000 , Mode=0, sum_dif=0101, carr_borr=1
#                 1570 A=0111, B=1000 , Mode=1, sum_dif=1001, carr_borr=0
#                 1580 A=0111, B=1001 , Mode=0, sum_dif=0110, carr_borr=0
#                 1590 A=0111, B=1001 , Mode=1, sum_dif=1000, carr_borr=0
#                 1600 A=1000, B=0000 , Mode=0, sum_dif=1000, carr_borr=0
#                 1610 A=1000, B=0000 , Mode=1, sum_dif=1000, carr_borr=0
#                 1620 A=1000, B=0001 , Mode=0, sum_dif=1001, carr_borr=0
#                 1630 A=1000, B=0001 , Mode=1, sum_dif=0111, carr_borr=0
#                 1640 A=1000, B=0010 , Mode=0, sum_dif=0000, carr_borr=1
#                 1650 A=1000, B=0010 , Mode=1, sum_dif=0110, carr_borr=0
#                 1660 A=1000, B=0011 , Mode=0, sum_dif=0001, carr_borr=1
#                 1670 A=1000, B=0011 , Mode=1, sum_dif=0101, carr_borr=1
#                 1680 A=1000, B=0100 , Mode=0, sum_dif=0010, carr_borr=1
#                 1690 A=1000, B=0100 , Mode=1, sum_dif=1000, carr_borr=0
#                 1700 A=1000, B=0101 , Mode=0, sum_dif=0011, carr_borr=1
#                 1710 A=1000, B=0101 , Mode=1, sum_dif=0011, carr_borr=1
#                 1720 A=1000, B=0110 , Mode=0, sum_dif=0100, carr_borr=1
#                 1730 A=1000, B=0110 , Mode=1, sum_dif=0010, carr_borr=1
#                 1740 A=1000, B=0111 , Mode=0, sum_dif=0101, carr_borr=1
#                 1750 A=1000, B=0111 , Mode=1, sum_dif=0001, carr_borr=1
#                 1760 A=1000, B=1000 , Mode=0, sum_dif=0110, carr_borr=0
#                 1770 A=1000, B=1000 , Mode=1, sum_dif=0000, carr_borr=1
#                 1780 A=1000, B=1001 , Mode=0, sum_dif=0111, carr_borr=0
#                 1790 A=1000, B=1001 , Mode=1, sum_dif=1001, carr_borr=0
#                 1800 A=1001, B=0000 , Mode=0, sum_dif=1001, carr_borr=0
#                 1810 A=1001, B=0000 , Mode=1, sum_dif=1001, carr_borr=0
#                 1820 A=1001, B=0001 , Mode=0, sum_dif=0000, carr_borr=1
#                 1830 A=1001, B=0001 , Mode=1, sum_dif=1000, carr_borr=0
#                 1840 A=1001, B=0010 , Mode=0, sum_dif=0001, carr_borr=1
#                 1850 A=1001, B=0010 , Mode=1, sum_dif=0111, carr_borr=0
#                 1860 A=1001, B=0011 , Mode=0, sum_dif=0010, carr_borr=1
#                 1870 A=1001, B=0011 , Mode=1, sum_dif=0110, carr_borr=0
#                 1880 A=1001, B=0100 , Mode=0, sum_dif=0011, carr_borr=1
#                 1890 A=1001, B=0100 , Mode=1, sum_dif=1001, carr_borr=0
#                 1900 A=1001, B=0101 , Mode=0, sum_dif=0100, carr_borr=1
#                 1910 A=1001, B=0101 , Mode=1, sum_dif=0100, carr_borr=1
#                 1920 A=1001, B=0110 , Mode=0, sum_dif=0101, carr_borr=1
#                 1930 A=1001, B=0110 , Mode=1, sum_dif=0011, carr_borr=1
#                 1940 A=1001, B=0111 , Mode=0, sum_dif=0110, carr_borr=0
#                 1950 A=1001, B=0111 , Mode=1, sum_dif=0010, carr_borr=1
#                 1960 A=1001, B=1000 , Mode=0, sum_dif=0111, carr_borr=0
#                 1970 A=1001, B=1000 , Mode=1, sum_dif=0001, carr_borr=1
#                 1980 A=1001, B=1001 , Mode=0, sum_dif=1000, carr_borr=0
#                 1990 A=1001, B=1001 , Mode=1, sum_dif=0000, carr_borr=1